QUARTO_BLOG - TD3
…
class(base_oly_ath)

[1] "tbl_df"     "tbl"        "data.frame"

dplyr, tidyr

Question 8

base_oly_ath |> 
  mutate(
    Sex=factor(Sex)
  )

# A tibble: 269,731 × 13
      ID Name      Sex     Age Height Weight Team  NOC   Games City  Sport Event
   <int> <chr>     <fct> <int>  <int>  <dbl> <chr> <chr> <chr> <chr> <chr> <chr>
 1     1 A Dijiang M        24    180     80 China CHN   1992… Barc… Bask… Bask…
 2     2 A Lamusi  M        23    170     60 China CHN   2012… Lond… Judo  Judo…
 3     3 Gunnar N… M        24     NA     NA Denm… DEN   1920… Antw… Foot… Foot…
 4     4 Edgar Li… M        34     NA     NA Denm… DEN   1900… Paris Tug-… Tug-…
 5     5 Christin… F        21    185     82 Neth… NED   1988… Calg… Spee… Spee…
 6     5 Christin… F        21    185     82 Neth… NED   1988… Calg… Spee… Spee…
 7     5 Christin… F        25    185     82 Neth… NED   1992… Albe… Spee… Spee…
 8     5 Christin… F        25    185     82 Neth… NED   1992… Albe… Spee… Spee…
 9     5 Christin… F        27    185     82 Neth… NED   1994… Lill… Spee… Spee…
10     5 Christin… F        27    185     82 Neth… NED   1994… Lill… Spee… Spee…
# ℹ 269,721 more rows
# ℹ 1 more variable: Medal <chr>
…
